/MANIFEST:EMBED
/MANIFESTINPUT:"..\Build\Windows\Resources\Default-Win64.manifest"
/NOLOGO
/DEBUG:FULL
/errorReport:prompt
/MACHINE:x64
/SUBSYSTEM:WINDOWS
/FIXED:No
/NXCOMPAT
/STACK:12000000
/DELAY:UNLOAD
/DLL
/PDBALTPATH:%_PDB%
/OPT:NOREF
/OPT:NOICF
/INCREMENTAL:NO
/ignore:4199
/ignore:4099
/ALTERNATENAME:__imp___std_init_once_begin_initialize=__imp_InitOnceBeginInitialize
/ALTERNATENAME:__imp___std_init_once_complete=__imp_InitOnceComplete
/DELAYLOAD:"d3d12.dll"
/DELAYLOAD:"DBGHELP.DLL"
/LIBPATH:"C:\Program Files\Microsoft Visual Studio\2022\Community\VC\Tools\MSVC\14.36.32532\lib\x64"
/LIBPATH:"C:\Program Files (x86)\Windows Kits\10\lib\10.0.22621.0\ucrt\x64"
/LIBPATH:"C:\Program Files (x86)\Windows Kits\10\lib\10.0.22621.0\um\x64"
/NODEFAULTLIB:"LIBCMT"
/NODEFAULTLIB:"LIBCPMT"
/NODEFAULTLIB:"LIBCMTD"
/NODEFAULTLIB:"LIBCPMTD"
/NODEFAULTLIB:"MSVCRTD"
/NODEFAULTLIB:"MSVCPRTD"
/NODEFAULTLIB:"LIBC"
/NODEFAULTLIB:"LIBCP"
/NODEFAULTLIB:"LIBCD"
/NODEFAULTLIB:"LIBCPD"
/FUNCTIONPADMIN:6
"C:\Users\elzzz\Unreal Projects\LyraStarterGame\Intermediate\Build\Win64\x64\LyraEditor\Development\UnrealEd\SharedPCH.UnrealEd.Cpp20.h.obj"
"C:\Users\elzzz\Unreal Projects\LyraStarterGame\Plugins\ModularGameplayActors\Intermediate\Build\Win64\x64\UnrealEditor\Development\ModularGameplayActors\Module.ModularGameplayActors.cpp.obj"
"C:\Users\elzzz\Unreal Projects\LyraStarterGame\Plugins\ModularGameplayActors\Intermediate\Build\Win64\x64\UnrealEditor\Development\ModularGameplayActors\Default.rc2.res"
"..\Intermediate\Build\Win64\x64\UnrealEditor\Development\Core\UnrealEditor-Core.lib"
"..\Intermediate\Build\Win64\x64\UnrealEditor\Development\CoreUObject\UnrealEditor-CoreUObject.lib"
"..\Intermediate\Build\Win64\x64\UnrealEditor\Development\Engine\UnrealEditor-Engine.lib"
"..\Plugins\Experimental\ModularGameplay\Intermediate\Build\Win64\x64\UnrealEditor\Development\ModularGameplay\UnrealEditor-ModularGameplay.lib"
"..\Intermediate\Build\Win64\x64\UnrealEditor\Development\AIModule\UnrealEditor-AIModule.lib"
"delayimp.lib"
"wininet.lib"
"rpcrt4.lib"
"ws2_32.lib"
"dbghelp.lib"
"comctl32.lib"
"Winmm.lib"
"kernel32.lib"
"user32.lib"
"gdi32.lib"
"winspool.lib"
"comdlg32.lib"
"advapi32.lib"
"shell32.lib"
"ole32.lib"
"oleaut32.lib"
"uuid.lib"
"odbc32.lib"
"odbccp32.lib"
"netapi32.lib"
"iphlpapi.lib"
"setupapi.lib"
"synchronization.lib"
"dwmapi.lib"
"imm32.lib"
/OUT:"C:\Users\elzzz\Unreal Projects\LyraStarterGame\Plugins\ModularGameplayActors\Binaries\Win64\UnrealEditor-ModularGameplayActors.dll"
/IMPLIB:"C:\Users\elzzz\Unreal Projects\LyraStarterGame\Plugins\ModularGameplayActors\Intermediate\Build\Win64\x64\UnrealEditor\Development\ModularGameplayActors\UnrealEditor-ModularGameplayActors.sup.lib"
/PDB:"C:\Users\elzzz\Unreal Projects\LyraStarterGame\Plugins\ModularGameplayActors\Binaries\Win64\UnrealEditor-ModularGameplayActors.pdb"
/ignore:4078