/NOLOGO
/errorReport:prompt
/MACHINE:x64
/SUBSYSTEM:WINDOWS
/DEF
/NAME:"UnrealEditor-CommonGame.dll"
/IGNORE:4221
/NODEFAULTLIB
"C:\Users\elzzz\Unreal Projects\LyraStarterGame\Intermediate\Build\Win64\x64\LyraEditor\Development\UnrealEd\SharedPCH.UnrealEd.Cpp20.h.obj"
"C:\Users\elzzz\Unreal Projects\LyraStarterGame\Plugins\CommonGame\Intermediate\Build\Win64\x64\UnrealEditor\Development\CommonGame\Module.CommonGame.cpp.obj"
"C:\Users\elzzz\Unreal Projects\LyraStarterGame\Plugins\CommonGame\Intermediate\Build\Win64\x64\UnrealEditor\Development\CommonGame\Default.rc2.res"
/OUT:"C:\Users\elzzz\Unreal Projects\LyraStarterGame\Plugins\CommonGame\Intermediate\Build\Win64\x64\UnrealEditor\Development\CommonGame\UnrealEditor-CommonGame.lib"